<?xml version="1.0" encoding="UTF-8" standalone="no"?>
<svg viewBox="0 0 140 190" xmlns="http://www.w3.org/2000/svg" xmlns:xlink="http://www.w3.org/1999/xlink">
<defs>
<linearGradient id="linearGradient8307">
<stop offset="0" stop-color="#000086"/>
<stop offset="1" stop-color="#005aff"/>
</linearGradient>
<linearGradient gradientUnits="userSpaceOnUse" id="linearGradient4853" x1="2" x2="109" y1="62.09952" y2="127.69501">
<stop offset="0" stop-color="#ebf0d0"/>
<stop offset="1" stop-color="#ffffeb"/>
</linearGradient>
<linearGradient gradientTransform="scale(.85424,1.17063)" gradientUnits="userSpaceOnUse" id="linearGradient8318" x1="138.23376" x2="36.51986" xlink:href="#linearGradient8307" y1="146.6171" y2="18.72825"/>
<linearGradient gradientTransform="scale(.85537,1.16908)" gradientUnits="userSpaceOnUse" id="linearGradient9086" x1="22.02909" x2="146.39938" xlink:href="#linearGradient8307" y1="17.15256" y2="140.45406"/>
<linearGradient gradientTransform="scale(.88507,1.12985)" gradientUnits="userSpaceOnUse" id="linearGradient2481" x1="24.31427" x2="128.44019" xlink:href="#linearGradient8307" y1="31.25407" y2="134.97331"/>
</defs>
<path d="m21,5h103c8.864,0 16,7.136 16,16v153c0,8.864-7.136,16-16,16h-103c-8.864,0-16-7.136-16-16v-153c0-8.864 7.136-16 16-16z" fill-opacity=".49804"/>
<path d="m17,1h103c8.864,0 16,7.136 16,16v153c0,8.864-7.136,16-16,16h-103c-8.864,0-16-7.136-16-16v-153c0-8.864 7.136-16 16-16z" fill="#fff"/>
<path d="m19,3h103c8.864,0 16,7.136 16,16v153c0,8.864-7.136,16-16,16h-103c-8.864,0-16-7.136-16-16v-153c0-8.864 7.136-16 16-16z" fill="#c7891f"/>
<path d="m18,2h103c8.864,0 16,7.136 16,16v153c0,8.864-7.136,16-16,16h-103c-8.864,0-16-7.136-16-16v-153c0-8.864 7.136-16 16-16z" fill="url(#linearGradient4853)"/>
<path d="m22.16667,10h94.41666c8.12534,0 14.66667,6.54133 14.66667,14.66667v140.24999c0,8.12534-6.54133,14.66667-14.66667,14.66667h-94.41666c-8.12533,0-14.66667-6.54133-14.66667-14.66667v-140.24999c0-8.12533 6.54133-14.66667 14.66667-14.66667z" fill="url(#linearGradient8318)"/>
<path d="m22.15625,9.375c-8.46077,0-15.28125,6.82048-15.28125,15.28125v140.25c0,8.46078 6.82048,15.3125 15.28125,15.3125h94.4375c8.46078,0 15.28125-6.85172 15.28125-15.3125v-140.25c0-8.46077-6.82047-15.28125-15.28125-15.28125h-94.4375zm0,1.25h94.4375c7.7899,0 14.03125,6.24136 14.03125,14.03125v140.25c0,7.7899-6.24135,14.0625-14.03125,14.0625h-94.4375c-7.78989,0-14.03125-6.2726-14.03125-14.0625v-140.25c0-7.78989 6.24136-14.03125 14.03125-14.03125z" fill="url(#linearGradient9086)"/>
<path d="m38.90625,21.25c-5.72602,0-10.375,7.01331-10.375,15.65625 0,7.36317 9.4288,19.74167 9.0625,25.625-3.02849,1.6813-12.38305-13.8125-17.21875-13.8125-5.72602,0-10.375,7.01331-10.375,15.65625s4.64898,15.65625 10.375,15.65625c4.96612,0 13.47484-15.5246 17.21875-14.125 .06999,2.00702-.13332,20.5111-1.1875,21.84375-2.2792,2.88123-5.15625,2.6875-5.15625,2.6875l.0625,3.15625 15.0625-.09375 .0625-3.15625c1e-005,0-2.8458.22498-5.125-2.65625-1.04871-1.32577-1.52305-21.02213-1.53125-21.65625h.09375v.03125c3.66641-1.37463 12.47531,14.24998 17.40625,14.25 5.72603,0 10.37501-7.01329 10.375-15.65625s-4.64897-15.65625-10.375-15.65625c-4.816,0-13.54156,15.26159-17.375,13.6875 .05386-6.02842 9.375-18.42618 9.375-25.78125 0-8.64294-4.64897-15.65625-10.375-15.65625zm59.59375,3.90625c-8.86019,17.71823-15.33043,26.86602-28.65625,36.625 12.61088,9.64187 21.50283,19.6111 28.90625,35.71875 6.61265-15.30237 14.69812-26.70434 28.75-36.1875-14.13471-7.19628-22.30453-18.61472-29-36.15625zm-73.375,73.59375c-1.71899.01156-3.59646.45499-5.6875,1.40625-22.79415,17.71371 7.93144,46.28457 20.90625,70.8125l.375.125c14.25885-26.80977 41.39627-56.3178 20.65625-70.9375-16.43079-7.47471-20.81542,17.38415-20.96875,18.28125-.13382-.78294-3.49287-19.76677-15.28125-19.6875zm73.875.15625c-10.57492,16.81396-43.02525,45.47258-22.46875,54.3125 12.47804,4.06935 18.42247-4.2662 20.9375-9.78125h.5c-.01892,1.03702-.49056,21.29971-1.8125,22.5-2.90028,2.63334-6.5625,2.4375-6.5625,2.4375l.0625,2.875 19.21875-.09375 .0625-2.8125c0,0-3.63097.16459-6.53125-2.46875-1.32213-1.20045-1.82493-21.44557-1.84375-22.46875h.21875c2.03142,4.50651 9.73929,13.83413 18.21875,10.28125 24.79457-9.95962-11.70847-38.31627-20-54.78125z" fill="url(#linearGradient2481)" fill-rule="evenodd"/>
</svg>
